…
### Шаг 2. Анализ данных

#### Задание 1. Раскройте датафрейм избавившись от вложенных датафреймов.

``` r
data <- neat_data %>%
  tidyr::unnest(c(metadata, event, log, winlog, ecs, host, agent), names_sep = ".")
data
```

    # A tibble: 101,904 × 34
       timestamp           metadata.beat metadata.type metadata.version
       <dttm>              <chr>         <chr>         <chr>           
     1 2019-10-20 20:11:06 winlogbeat    _doc          7.4.0           
     2 2019-10-20 20:11:07 winlogbeat    _doc          7.4.0           
     3 2019-10-20 20:11:09 winlogbeat    _doc          7.4.0           
     4 2019-10-20 20:11:10 winlogbeat    _doc          7.4.0           
     5 2019-10-20 20:11:11 winlogbeat    _doc          7.4.0           
     6 2019-10-20 20:11:15 winlogbeat    _doc          7.4.0           
     7 2019-10-20 20:11:15 winlogbeat    _doc          7.4.0           
     8 2019-10-20 20:11:15 winlogbeat    _doc          7.4.0           
     9 2019-10-20 20:11:15 winlogbeat    _doc          7.4.0           
    10 2019-10-20 20:11:16 winlogbeat    _doc          7.4.0           
    # ℹ 101,894 more rows
    # ℹ 30 more variables: metadata.topic <chr>, event.created <chr>,
    #   event.kind <chr>, event.code <int>, event.action <chr>, log.level <chr>,
    #   message <chr>, winlog.event_data <df[,234]>, winlog.event_id <int>,
    #   winlog.provider_name <chr>, winlog.api <chr>, winlog.record_id <int>,
    #   winlog.computer_name <chr>, winlog.process <df[,2]>,
    #   winlog.keywords <list>, winlog.provider_guid <chr>, winlog.channel <chr>, …
…
#### Задание 2. Минимизируйте количество колонок в датафрейме – уберите колоки с единственным значением параметра.

``` r
data_minimized  <- data %>%
  select(-metadata.beat, -metadata.type, -metadata.version, -metadata.topic,
         -event.kind, -winlog.api, -agent.ephemeral_id, -agent.hostname, 
         -agent.id, -agent.version, -agent.type) %>%
  mutate(`event.created` = as.POSIXct(`event.created`, format = "%Y-%m-%dT%H:%M:%OSZ", tz = "UTC"))
data_minimized
```

    # A tibble: 101,904 × 23
       timestamp           event.created       event.code event.action     log.level
       <dttm>              <dttm>                   <int> <chr>            <chr>    
     1 2019-10-20 20:11:06 2019-10-20 20:11:09       4703 Token Right Adj… informat…
     2 2019-10-20 20:11:07 2019-10-20 20:11:09       4673 Sensitive Privi… informat…
     3 2019-10-20 20:11:09 2019-10-20 20:11:11         10 Process accesse… informat…
     4 2019-10-20 20:11:10 2019-10-20 20:11:14         10 Process accesse… informat…
     5 2019-10-20 20:11:11 2019-10-20 20:11:14         10 Process accesse… informat…
     6 2019-10-20 20:11:15 2019-10-20 20:11:18         10 Process accesse… informat…
     7 2019-10-20 20:11:15 2019-10-20 20:11:18         11 File created (r… informat…
     8 2019-10-20 20:11:15 2019-10-20 20:11:18         10 Process accesse… informat…
     9 2019-10-20 20:11:15 2019-10-20 20:11:18         10 Process accesse… informat…
    10 2019-10-20 20:11:16 2019-10-20 20:11:18         10 Process accesse… informat…
    # ℹ 101,894 more rows
    # ℹ 18 more variables: message <chr>, winlog.event_data <df[,234]>,
    #   winlog.event_id <int>, winlog.provider_name <chr>, winlog.record_id <int>,
    #   winlog.computer_name <chr>, winlog.process <df[,2]>,
    #   winlog.keywords <list>, winlog.provider_guid <chr>, winlog.channel <chr>,
    #   winlog.task <chr>, winlog.opcode <chr>, winlog.version <int>,
    #   winlog.user <df[,4]>, winlog.activity_id <chr>, …
…
Использую функцию distinct() для выбора уникальных значений столбца
host.name из data_minimized. Функция distinct() удаляет дублирующиеся
строки в датафрейме и возвращает только уникальные строки.

#### Задание 4. Подготовьте датафрейм с расшифровкой Windows Event_ID, приведите типы данных к типу их значений

``` r
web_url <- "https://learn.microsoft.com/en-us/windows-server/identity/ad-ds/plan/appendix-l--events-to-monitor"
web <- xml2::read_html(web_url)
event <- rvest::html_table(web)[[1]]
event
```

    # A tibble: 381 × 4
       `Current Windows Event ID` `Legacy Windows Event ID` `Potential Criticality`
       <chr>                      <chr>                     <chr>                  
     1 4618                       N/A                       High                   
     2 4649                       N/A                       High                   
     3 4719                       612                       High                   
     4 4765                       N/A                       High                   
     5 4766                       N/A                       High                   
     6 4794                       N/A                       High                   
     7 4897                       801                       High                   
     8 4964                       N/A                       High                   
     9 5124                       N/A                       High                   
    10 N/A                        550                       Medium to High         
    # ℹ 371 more rows
    # ℹ 1 more variable: `Event Summary` <chr>
…
    Warning: There were 2 warnings in `mutate()`.
    The first warning was:
    ℹ In argument: `Current Windows Event ID = .Primitive("as.integer")(`Current
      Windows Event ID`)`.
    Caused by warning:
    ! в результате преобразования созданы NA
    ℹ Run `dplyr::last_dplyr_warnings()` to see the 1 remaining warning.

``` r
event_data
```

    # A tibble: 381 × 4
       Current_Windows_Event_ID Legacy_Windows_Event_ID Potential_Criticality
                          <int>                   <int> <chr>                
     1                     4618                      NA High                 
     2                     4649                      NA High                 
     3                     4719                     612 High                 
     4                     4765                      NA High                 
     5                     4766                      NA High                 
     6                     4794                      NA High                 
     7                     4897                     801 High                 
     8                     4964                      NA High                 
     9                     5124                      NA High                 
    10                       NA                     550 Medium to High       
    # ℹ 371 more rows
    # ℹ 1 more variable: Event_Summary <chr>
…
